<?xml version="1.0" standalone="no"?>
<!DOCTYPE svg PUBLIC "-//W3C//DTD SVG 20010904//EN"
 "http://www.w3.org/TR/2001/REC-SVG-20010904/DTD/svg10.dtd">
<svg version="1.0" xmlns="http://www.w3.org/2000/svg"
 width="1200.000000pt" height="1200.000000pt" viewBox="0 0 1200.000000 1200.000000"
 preserveAspectRatio="xMidYMid meet">
<metadata>
Created by potrace 1.11, written by Peter Selinger 2001-2013
</metadata>
<g transform="translate(0.000000,1200.000000) scale(0.100000,-0.100000)"
fill="#000000" stroke="none">
<path d="M3400 10501 l-2595 -1498 0 -3003 0 -3003 2595 -1498 c1427 -825
2597 -1499 2600 -1499 3 0 1173 674 2600 1499 l2595 1498 0 3003 0 3003 -2595
1498 c-1427 825 -2597 1499 -2600 1499 -3 0 -1173 -674 -2600 -1499z m935
-4225 c211 -642 385 -1170 387 -1172 2 -1 184 522 404 1164 l400 1167 167 3
c94 1 167 -1 167 -7 0 -11 -976 -2767 -995 -2809 l-15 -33 -132 3 -133 3 -384
1138 c-212 625 -388 1134 -391 1130 -4 -5 -175 -503 -380 -1108 -205 -605
-379 -1115 -386 -1133 l-13 -33 -132 3 -131 3 -504 1420 c-277 781 -504 1421
-504 1423 0 1 78 2 174 2 l174 0 31 -87 c17 -49 197 -573 401 -1167 203 -593
371 -1080 373 -1082 2 -2 173 515 381 1148 208 633 382 1162 387 1175 9 23 10
24 140 21 l131 -3 383 -1169z m4424 -3 c211 -645 386 -1172 387 -1170 2 2 183
527 403 1168 l399 1164 171 3 171 2 -11 -27 c-13 -35 -954 -2687 -981 -2766
l-20 -58 -135 3 -135 3 -259 765 c-486 1438 -512 1512 -520 1498 -4 -7 -174
-506 -379 -1108 -205 -602 -378 -1110 -385 -1127 l-14 -33 -129 0 -130 0 -26
73 c-15 39 -242 680 -505 1422 l-478 1350 170 3 c94 1 174 -1 177 -5 4 -5 186
-531 405 -1170 219 -640 400 -1161 402 -1160 2 2 174 525 383 1163 209 637
382 1165 385 1172 3 9 36 12 137 10 l132 -3 385 -1172z"/>
</g>
</svg>
